Single-Cycle CPU/wave.vcd
$date
	Fri Oct 03 16:45:02 2025
$end
$version
	Icarus Verilog
$end
$timescale
	1s
$end
$scope module cpu_tb $end
$scope module cpu $end
$var wire 1 ! clk $end
$var wire 1 " reset $end
$var wire 5 # write_addr [4:0] $end
$var wire 5 $ rt [4:0] $end
$var wire 5 % rs [4:0] $end
$var wire 32 & reg_write_data [31:0] $end
$var wire 1 ' reg_write $end
$var wire 32 ( reg_data3 [31:0] $end
$var wire 32 ) reg_data2 [31:0] $end
$var wire 32 * reg_data1 [31:0] $end
$var wire 5 + rd [4:0] $end
$var wire 32 , ram_read_data [31:0] $end
$var wire 7 - pc [6:0] $end
$var wire 6 . opcode [5:0] $end
$var wire 1 / mem_write $end
$var wire 1 0 mem_read $end
$var wire 5 1 lt [4:0] $end
$var wire 7 2 ls [6:0] $end
$var wire 7 3 jump_address [6:0] $end
$var wire 1 4 jump $end
$var wire 32 5 instruction [31:0] $end
$var wire 32 6 alu_result [31:0] $end
$var wire 3 7 alu_op [2:0] $end
$scope module f1 $end
$var wire 1 ! clk $end
$var wire 7 8 jump_address [6:0] $end
$var wire 1 " reset $end
$var wire 1 4 jump $end
$var reg 7 9 pc [6:0] $end
$upscope $end
$scope module f2 $end
$var wire 7 : RAM_address [6:0] $end
$var wire 1 ! clk $end
$var wire 7 ; pc [6:0] $end
$var wire 1 " reset $end
$var wire 32 < write_data [31:0] $end
$var wire 1 / write_RAM $end
$var wire 1 0 read_RAM $end
$var reg 32 = instruction [31:0] $end
$var reg 32 > read_data [31:0] $end
$var integer 32 ? i [31:0] $end
$upscope $end
$scope module f3 $end
$var wire 1 ! clk $end
$var wire 32 @ read1 [31:0] $end
$var wire 5 A read1_address [4:0] $end
$var wire 32 B read2 [31:0] $end
$var wire 5 C read2_address [4:0] $end
$var wire 32 D read3 [31:0] $end
$var wire 5 E read3_address [4:0] $end
$var wire 32 F write [31:0] $end
$var wire 5 G write_address [4:0] $end
$var wire 1 ' reg_write $end
$upscope $end
$scope module f4 $end
$var wire 32 H a [31:0] $end
$var wire 32 I b [31:0] $end
$var wire 1 J zero $end
$var wire 3 K alu_op [2:0] $end
$var parameter 3 L alu_add $end
$var parameter 3 M alu_div $end
$var parameter 3 N alu_mult $end
$var parameter 3 O alu_slt $end
$var parameter 3 P alu_sub $end
$var parameter 3 Q alu_xor $end
$var reg 32 R alu_result [31:0] $end
$upscope $end
$scope module f5 $end
$var wire 6 S opcode [5:0] $end
$var reg 3 T alu_op [2:0] $end
$var reg 1 4 jump $end
$var reg 1 0 mem_read $end
$var reg 1 / mem_write $end
$var reg 1 ' reg_write $end
$upscope $end
$upscope $end
$upscope $end
$enddefinitions $end
$comment Show the parameter values. $end
$dumpall
b100 Q
b1 P
b101 O
b10 N
b11 M
b0 L
$end
#0
$dumpvars
bx T
bx S
bx R
bx K
xJ
bx I
bx H
bx G
bx F
bx E
bx D
bx C
bx B
bx A
bx @
bx ?
b0 >
bx =
bx <
b0 ;
bx :
b0 9
bx 8
bx 7
bx 6
bx 5
x4
bx 3
bx 2
bx 1
x0
x/
bx .
b0 -
b0 ,
bx +
bx *
bx )
bx (
x'
bx &
bx %
bx $
bx #
1"
0!
$end
#5
b0 &
b0 F
b0 #
b0 G
1J
b0 6
b0 R
b0 7
b0 K
b0 T
04
0/
00
1'
b0 3
b0 8
b0 (
b0 <
b0 D
b0 1
b0 E
b0 2
b0 :
b0 +
b0 )
b0 B
b0 I
b0 $
b0 C
b0 *
b0 @
b0 H
b0 %
b0 A
b0 .
b0 S
b0 5
b0 =
b10000000 ?
1!
#10
b110100100 &
b110100100 F
b110100100 ,
b110100100 >
b1 #
b1 G
b111 7
b111 K
b111 T
10
1'
b1 1
b1 E
b1000000 2
b1000000 :
b1000 +
b10000 %
b10000 A
b100 .
b100 S
b10010000000000100000000000000 5
b10010000000000100000000000000 =
0!
0"
#15
b10 #
b10 G
b0 ,
b0 >
0J
b110100100 6
b110100100 R
b0 7
b0 K
b0 T
00
1'
b1000 1
b1000 E
b100 2
b100 :
b10 +
b10 $
b10 C
b110100100 *
b110100100 @
b110100100 H
b1 %
b1 A
b0 .
b0 S
b1000100001000000000000 5
b1000100001000000000000 =
b1 -
b1 9
b1 ;
b0 (
b0 <
b0 D
1!
#20
0!
#25
b110100111 ,
b110100111 >
b1 #
b1 G
1J
b111 7
b111 K
b111 T
10
1'
b110100100 (
b110100100 <
b110100100 D
b1 1
b1 E
b1000001 2
b1000001 :
b1000 +
b1000 $
b1000 C
b0 *
b0 @
b0 H
b10000 %
b10000 A
b100 .
b100 S
b110100111 &
b110100111 F
b10010000010000100000000000000 5
b10010000010000100000000000000 =
b0 6
b0 R
b10 -
b10 9
b10 ;
b0 )
b0 B
b0 I
1!
#30
0!
#35
b1101001011 &
b1101001011 F
b10 #
b10 G
b0 ,
b0 >
0J
b1101001011 6
b1101001011 R
b0 7
b0 K
b0 T
00
1'
b1000 1
b1000 E
b100 2
b100 :
b10 +
b110100100 )
b110100100 B
b110100100 I
b10 $
b10 C
b110100111 *
b110100111 @
b110100111 H
b1 %
b1 A
b0 .
b0 S
b1000100001000000000000 5
b1000100001000000000000 =
b11 -
b11 9
b11 ;
b0 (
b0 <
b0 D
1!
#40
0!
#45
b110100111 ,
b110100111 >
b1 #
b1 G
1J
b111 7
b111 K
b111 T
10
1'
b110100111 (
b110100111 <
b110100111 D
b1 1
b1 E
b1000010 2
b1000010 :
b1000 +
b10000 $
b10000 C
b0 *
b0 @
b0 H
b10000 %
b10000 A
b100 .
b100 S
b110100111 &
b110100111 F
b10010000100000100000000000000 5
b10010000100000100000000000000 =
b0 6
b0 R
b100 -
b100 9
b100 ;
b0 )
b0 B
b0 I
1!
#50
0!
#55
b10011110010 &
b10011110010 F
b10 #
b10 G
b0 ,
b0 >
0J
b10011110010 6
b10011110010 R
b0 7
b0 K
b0 T
00
1'
b0 (
b0 <
b0 D
b1000 1
b1000 E
b100 2
b100 :
b10 +
b1101001011 )
b1101001011 B
b1101001011 I
b10 $
b10 C
b110100111 *
b110100111 @
b110100111 H
b1 %
b1 A
b0 .
b0 S
b1000100001000000000000 5
b1000100001000000000000 =
b101 -
b101 9
b101 ;
1!
#60
0!
#65
b111000000 ,
b111000000 >
b1 #
b1 G
1J
b111 7
b111 K
b111 T
10
1'
b110100111 (
b110100111 <
b110100111 D
b1 1
b1 E
b1000011 2
b1000011 :
b1000 +
b11000 $
b11000 C
b0 *
b0 @
b0 H
b10000 %
b10000 A
b100 .
b100 S
b111000000 &
b111000000 F
b10010000110000100000000000000 5
b10010000110000100000000000000 =
b0 6
b0 R
b110 -
b110 9
b110 ;
b0 )
b0 B
b0 I
1!
#70
0!
#75
b11010110010 &
b11010110010 F
b10 #
b10 G
b0 ,
b0 >
0J
b11010110010 6
b11010110010 R
b0 7
b0 K
b0 T
00
1'
b1000 1
b1000 E
b100 2
b100 :
b10 +
b10011110010 )
b10011110010 B
b10011110010 I
b10 $
b10 C
b111000000 *
b111000000 @
b111000000 H
b1 %
b1 A
b0 .
b0 S
b1000100001000000000000 5
b1000100001000000000000 =
b111 -
b111 9
b111 ;
b0 (
b0 <
b0 D
1!
#80
0!
#85
b110111100 ,
b110111100 >
b1 #
b1 G
1J
b111 7
b111 K
b111 T
10
1'
b111000000 (
b111000000 <
b111000000 D
b1 1
b1 E
b1000100 2
b1000100 :
b1000 +
b0 $
b0 C
b0 *
b0 @
b0 H
b10001 %
b10001 A
b100 .
b100 S
b110111100 &
b110111100 F
b10010001000000100000000000000 5
b10010001000000100000000000000 =
b0 6
b0 R
b1000 -
b1000 9
b1000 ;
b0 )
b0 B
b0 I
1!
#90
0!
#95
b100001101110 &
b100001101110 F
b10 #
b10 G
b0 ,
b0 >
0J
b100001101110 6
b100001101110 R
b0 7
b0 K
b0 T
00
1'
b1000 1
b1000 E
b100 2
b100 :
b10 +
b11010110010 )
b11010110010 B
b11010110010 I
b10 $
b10 C
b110111100 *
b110111100 @
b110111100 H
b1 %
b1 A
b0 .
b0 S
b1000100001000000000000 5
b1000100001000000000000 =
b1001 -
b1001 9
b1001 ;
b0 (
b0 <
b0 D
1!
#100
0!
#105
b110110010 ,
b110110010 >
b1 #
b1 G
1J
b111 7
b111 K
b111 T
10
1'
b110111100 (
b110111100 <
b110111100 D
b1 1
b1 E
b1000101 2
b1000101 :
b1000 +
b1000 $
b1000 C
b0 *
b0 @
b0 H
b10001 %
b10001 A
b100 .
b100 S
b110110010 &
b110110010 F
b10010001010000100000000000000 5
b10010001010000100000000000000 =
b0 6
b0 R
b1010 -
b1010 9
b1010 ;
b0 )
b0 B
b0 I
1!
#110
0!
#115
b101000100000 &
b101000100000 F
b10 #
b10 G
b0 ,
b0 >
0J
b101000100000 6
b101000100000 R
b0 7
b0 K
b0 T
00
1'
b1000 1
b1000 E
b100 2
b100 :
b10 +
b100001101110 )
b100001101110 B
b100001101110 I
b10 $
b10 C
b110110010 *
b110110010 @
b110110010 H
b1 %
b1 A
b0 .
b0 S
b1000100001000000000000 5
b1000100001000000000000 =
b1011 -
b1011 9
b1011 ;
b0 (
b0 <
b0 D
1!
#120
0!
#125
b110101001 ,
b110101001 >
b1 #
b1 G
1J
b111 7
b111 K
b111 T
10
1'
b110110010 (
b110110010 <
b110110010 D
b1 1
b1 E
b1000110 2
b1000110 :
b1000 +
b10000 $
b10000 C
b0 *
b0 @
b0 H
b10001 %
b10001 A
b100 .
b100 S
b110101001 &
b110101001 F
b10010001100000100000000000000 5
b10010001100000100000000000000 =
b0 6
b0 R
b1100 -
b1100 9
b1100 ;
b0 )
b0 B
b0 I
1!
#130
0!
#135
b101111001001 &
b101111001001 F
b10 #
b10 G
b0 ,
b0 >
0J
b101111001001 6
b101111001001 R
b0 7
b0 K
b0 T
00
1'
b1000 1
b1000 E
b100 2
b100 :
b10 +
b101000100000 )
b101000100000 B
b101000100000 I
b10 $
b10 C
b110101001 *
b110101001 @
b110101001 H
b1 %
b1 A
b0 .
b0 S
b1000100001000000000000 5
b1000100001000000000000 =
b1101 -
b1101 9
b1101 ;
b0 (
b0 <
b0 D
1!
#140
0!
#145
b111000000 ,
b111000000 >
b1 #
b1 G
1J
b111 7
b111 K
b111 T
10
1'
b110101001 (
b110101001 <
b110101001 D
b1 1
b1 E
b1000111 2
b1000111 :
b1000 +
b11000 $
b11000 C
b0 *
b0 @
b0 H
b10001 %
b10001 A
b100 .
b100 S
b111000000 &
b111000000 F
b10010001110000100000000000000 5
b10010001110000100000000000000 =
b0 6
b0 R
b1110 -
b1110 9
b1110 ;
b0 )
b0 B
b0 I
1!
#150
0!
#155
b110110001001 &
b110110001001 F
b10 #
b10 G
b0 ,
b0 >
0J
b110110001001 6
b110110001001 R
b0 7
b0 K
b0 T
00
1'
b1000 1
b1000 E
b100 2
b100 :
b10 +
b101111001001 )
b101111001001 B
b101111001001 I
b10 $
b10 C
b111000000 *
b111000000 @
b111000000 H
b1 %
b1 A
b0 .
b0 S
b1000100001000000000000 5
b1000100001000000000000 =
b1111 -
b1111 9
b1111 ;
b0 (
b0 <
b0 D
1!
#160
0!
#165
b110110010 ,
b110110010 >
b1 #
b1 G
1J
b111 7
b111 K
b111 T
10
1'
b111000000 (
b111000000 <
b111000000 D
b1 1
b1 E
b1001000 2
b1001000 :
b1000 +
b0 $
b0 C
b0 *
b0 @
b0 H
b10010 %
b10010 A
b100 .
b100 S
b110110010 &
b110110010 F
b10010010000000100000000000000 5
b10010010000000100000000000000 =
b0 6
b0 R
b10000 -
b10000 9
b10000 ;
b0 )
b0 B
b0 I
1!
#170
0!
#175
b111100111011 &
b111100111011 F
b10 #
b10 G
b0 ,
b0 >
0J
b111100111011 6
b111100111011 R
b0 7
b0 K
b0 T
00
1'
b1000 1
b1000 E
b100 2
b100 :
b10 +
b110110001001 )
b110110001001 B
b110110001001 I
b10 $
b10 C
b110110010 *
b110110010 @
b110110010 H
b1 %
b1 A
b0 .
b0 S
b1000100001000000000000 5
b1000100001000000000000 =
b10001 -
b10001 9
b10001 ;
b0 (
b0 <
b0 D
1!
#180
0!
#185
b110110000 ,
b110110000 >
b1 #
b1 G
1J
b111 7
b111 K
b111 T
10
1'
b110110010 (
b110110010 <
b110110010 D
b1 1
b1 E
b1001001 2
b1001001 :
b1000 +
b1000 $
b1000 C
b0 *
b0 @
b0 H
b10010 %
b10010 A
b100 .
b100 S
b110110000 &
b110110000 F
b10010010010000100000000000000 5
b10010010010000100000000000000 =
b0 6
b0 R
b10010 -
b10010 9
b10010 ;
b0 )
b0 B
b0 I
1!
#190
0!
#195
b1000011101011 &
b1000011101011 F
b10 #
b10 G
b0 ,
b0 >
0J
b1000011101011 6
b1000011101011 R
b0 7
b0 K
b0 T
00
1'
b1000 1
b1000 E
b100 2
b100 :
b10 +
b111100111011 )
b111100111011 B
b111100111011 I
b10 $
b10 C
b110110000 *
b110110000 @
b110110000 H
b1 %
b1 A
b0 .
b0 S
b1000100001000000000000 5
b1000100001000000000000 =
b10011 -
b10011 9
b10011 ;
b0 (
b0 <
b0 D
1!
#200
0!
#205
b110101011 ,
b110101011 >
b1 #
b1 G
1J
b111 7
b111 K
b111 T
10
1'
b110110000 (
b110110000 <
b110110000 D
b1 1
b1 E
b1001010 2
b1001010 :
b1000 +
b10000 $
b10000 C
b0 *
b0 @
b0 H
b10010 %
b10010 A
b100 .
b100 S
b110101011 &
b110101011 F
b10010010100000100000000000000 5
b10010010100000100000000000000 =
b0 6
b0 R
b10100 -
b10100 9
b10100 ;
b0 )
b0 B
b0 I
1!
#210
0!
#215
b1001010010110 &
b1001010010110 F
b10 #
b10 G
b0 ,
b0 >
0J
b1001010010110 6
b1001010010110 R
b0 7
b0 K
b0 T
00
1'
b1000 1
b1000 E
b100 2
b100 :
b10 +
b1000011101011 )
b1000011101011 B
b1000011101011 I
b10 $
b10 C
b110101011 *
b110101011 @
b110101011 H
b1 %
b1 A
b0 .
b0 S
b1000100001000000000000 5
b1000100001000000000000 =
b10101 -
b10101 9
b10101 ;
b0 (
b0 <
b0 D
1!
#220
0!
#225
b110111011 ,
b110111011 >
b1 #
b1 G
1J
b111 7
b111 K
b111 T
10
1'
b110101011 (
b110101011 <
b110101011 D
b1 1
b1 E
b1001011 2
b1001011 :
b1000 +
b11000 $
b11000 C
b0 *
b0 @
b0 H
b10010 %
b10010 A
b100 .
b100 S
b110111011 &
b110111011 F
b10010010110000100000000000000 5
b10010010110000100000000000000 =
b0 6
b0 R
b10110 -
b10110 9
b10110 ;
b0 )
b0 B
b0 I
1!
#230
0!
#235
b1010001010001 &
b1010001010001 F
b10 #
b10 G
b0 ,
b0 >
0J
b1010001010001 6
b1010001010001 R
b0 7
b0 K
b0 T
00
1'
b1000 1
b1000 E
b100 2
b100 :
b10 +
b1001010010110 )
b1001010010110 B
b1001010010110 I
b10 $
b10 C
b110111011 *
b110111011 @
b110111011 H
b1 %
b1 A
b0 .
b0 S
b1000100001000000000000 5
b1000100001000000000000 =
b10111 -
b10111 9
b10111 ;
b0 (
b0 <
b0 D
1!
#240
0!
#245
b111000001 ,
b111000001 >
b1 #
b1 G
1J
b111 7
b111 K
b111 T
10
1'
b110111011 (
b110111011 <
b110111011 D
b1 1
b1 E
b1001100 2
b1001100 :
b1000 +
b0 $
b0 C
b0 *
b0 @
b0 H
b10011 %
b10011 A
b100 .
b100 S
b111000001 &
b111000001 F
b10010011000000100000000000000 5
b10010011000000100000000000000 =
b0 6
b0 R
b11000 -
b11000 9
b11000 ;
b0 )
b0 B
b0 I
1!
#250
0!
#255
b1011000010010 &
b1011000010010 F
b10 #
b10 G
b0 ,
b0 >
0J
b1011000010010 6
b1011000010010 R
b0 7
b0 K
b0 T
00
1'
b1000 1
b1000 E
b100 2
b100 :
b10 +
b1010001010001 )
b1010001010001 B
b1010001010001 I
b10 $
b10 C
b111000001 *
b111000001 @
b111000001 H
b1 %
b1 A
b0 .
b0 S
b1000100001000000000000 5
b1000100001000000000000 =
b11001 -
b11001 9
b11001 ;
b0 (
b0 <
b0 D
1!
#260
0!
#265
b110110001 ,
b110110001 >
b1 #
b1 G
1J
b111 7
b111 K
b111 T
10
1'
b111000001 (
b111000001 <
b111000001 D
b1 1
b1 E
b1001101 2
b1001101 :
b1000 +
b1000 $
b1000 C
b0 *
b0 @
b0 H
b10011 %
b10011 A
b100 .
b100 S
b110110001 &
b110110001 F
b10010011010000100000000000000 5
b10010011010000100000000000000 =
b0 6
b0 R
b11010 -
b11010 9
b11010 ;
b0 )
b0 B
b0 I
1!
#270
0!
#275
b1011111000011 &
b1011111000011 F
b10 #
b10 G
b0 ,
b0 >
0J
b1011111000011 6
b1011111000011 R
b0 7
b0 K
b0 T
00
1'
b1000 1
b1000 E
b100 2
b100 :
b10 +
b1011000010010 )
b1011000010010 B
b1011000010010 I
b10 $
b10 C
b110110001 *
b110110001 @
b110110001 H
b1 %
b1 A
b0 .
b0 S
b1000100001000000000000 5
b1000100001000000000000 =
b11011 -
b11011 9
b11011 ;
b0 (
b0 <
b0 D
1!
#280
0!
#285
b110100100 ,
b110100100 >
b1 #
b1 G
1J
b111 7
b111 K
b111 T
10
1'
b110110001 (
b110110001 <
b110110001 D
b1 1
b1 E
b1001110 2
b1001110 :
b1000 +
b10000 $
b10000 C
b0 *
b0 @
b0 H
b10011 %
b10011 A
b100 .
b100 S
b110100100 &
b110100100 F
b10010011100000100000000000000 5
b10010011100000100000000000000 =
b0 6
b0 R
b11100 -
b11100 9
b11100 ;
b0 )
b0 B
b0 I
1!
#290
0!
#295
b1100101100111 &
b1100101100111 F
b10 #
b10 G
b0 ,
b0 >
0J
b1100101100111 6
b1100101100111 R
b0 7
b0 K
b0 T
00
1'
b1000 1
b1000 E
b100 2
b100 :
b10 +
b1011111000011 )
b1011111000011 B
b1011111000011 I
b10 $
b10 C
b110100100 *
b110100100 @
b110100100 H
b1 %
b1 A
b0 .
b0 S
b1000100001000000000000 5
b1000100001000000000000 =
b11101 -
b11101 9
b11101 ;
b0 (
b0 <
b0 D
1!
#300
0!
#305
b110110011 ,
b110110011 >
b1 #
b1 G
1J
b111 7
b111 K
b111 T
10
1'
b110100100 (
b110100100 <
b110100100 D
b1 1
b1 E
b1001111 2
b1001111 :
b1000 +
b11000 $
b11000 C
b0 *
b0 @
b0 H
b10011 %
b10011 A
b100 .
b100 S
b110110011 &
b110110011 F
b10010011110000100000000000000 5
b10010011110000100000000000000 =
b0 6
b0 R
b11110 -
b11110 9
b11110 ;
b0 )
b0 B
b0 I
1!
#310
0!
#315
b1101100011010 &
b1101100011010 F
b10 #
b10 G
b0 ,
b0 >
0J
b1101100011010 6
b1101100011010 R
b0 7
b0 K
b0 T
00
1'
b1000 1
b1000 E
b100 2
b100 :
b10 +
b1100101100111 )
b1100101100111 B
b1100101100111 I
b10 $
b10 C
b110110011 *
b110110011 @
b110110011 H
b1 %
b1 A
b0 .
b0 S
b1000100001000000000000 5
b1000100001000000000000 =
b11111 -
b11111 9
b11111 ;
b0 (
b0 <
b0 D
1!
#320
0!
#325
b110111000 ,
b110111000 >
b1 #
b1 G
1J
b111 7
b111 K
b111 T
10
1'
b110110011 (
b110110011 <
b110110011 D
b1 1
b1 E
b1010000 2
b1010000 :
b1000 +
b0 $
b0 C
b0 *
b0 @
b0 H
b10100 %
b10100 A
b100 .
b100 S
b110111000 &
b110111000 F
b10010100000000100000000000000 5
b10010100000000100000000000000 =
b0 6
b0 R
b100000 -
b100000 9
b100000 ;
b0 )
b0 B
b0 I
1!
#330
0!
#335
b1110011010010 &
b1110011010010 F
b10 #
b10 G
b0 ,
b0 >
0J
b1110011010010 6
b1110011010010 R
b0 7
b0 K
b0 T
00
1'
b1000 1
b1000 E
b100 2
b100 :
b10 +
b1101100011010 )
b1101100011010 B
b1101100011010 I
b10 $
b10 C
b110111000 *
b110111000 @
b110111000 H
b1 %
b1 A
b0 .
b0 S
b1000100001000000000000 5
b1000100001000000000000 =
b100001 -
b100001 9
b100001 ;
b0 (
b0 <
b0 D
1!
#340
0!
#345
b110101010 ,
b110101010 >
b1 #
b1 G
1J
b111 7
b111 K
b111 T
10
1'
b110111000 (
b110111000 <
b110111000 D
b1 1
b1 E
b1010001 2
b1010001 :
b1000 +
b1000 $
b1000 C
b0 *
b0 @
b0 H
b10100 %
b10100 A
b100 .
b100 S
b110101010 &
b110101010 F
b10010100010000100000000000000 5
b10010100010000100000000000000 =
b0 6
b0 R
b100010 -
b100010 9
b100010 ;
b0 )
b0 B
b0 I
1!
#350
0!
#355
b1111001111100 &
b1111001111100 F
b10 #
b10 G
b0 ,
b0 >
0J
b1111001111100 6
b1111001111100 R
b0 7
b0 K
b0 T
00
1'
b1000 1
b1000 E
b100 2
b100 :
b10 +
b1110011010010 )
b1110011010010 B
b1110011010010 I
b10 $
b10 C
b110101010 *
b110101010 @
b110101010 H
b1 %
b1 A
b0 .
b0 S
b1000100001000000000000 5
b1000100001000000000000 =
b100011 -
b100011 9
b100011 ;
b0 (
b0 <
b0 D
1!
#360
0!
#365
b110111001 ,
b110111001 >
b1 #
b1 G
1J
b111 7
b111 K
b111 T
10
1'
b110101010 (
b110101010 <
b110101010 D
b1 1
b1 E
b1010010 2
b1010010 :
b1000 +
b10000 $
b10000 C
b0 *
b0 @
b0 H
b10100 %
b10100 A
b100 .
b100 S
b110111001 &
b110111001 F
b10010100100000100000000000000 5
b10010100100000100000000000000 =
b0 6
b0 R
b100100 -
b100100 9
b100100 ;
b0 )
b0 B
b0 I
1!
#370
0!
#375
b10000000110101 &
b10000000110101 F
b10 #
b10 G
b0 ,
b0 >
0J
b10000000110101 6
b10000000110101 R
b0 7
b0 K
b0 T
00
1'
b1000 1
b1000 E
b100 2
b100 :
b10 +
b1111001111100 )
b1111001111100 B
b1111001111100 I
b10 $
b10 C
b110111001 *
b110111001 @
b110111001 H
b1 %
b1 A
b0 .
b0 S
b1000100001000000000000 5
b1000100001000000000000 =
b100101 -
b100101 9
b100101 ;
b0 (
b0 <
b0 D
1!
#380
0!
#385
b110110011 ,
b110110011 >
b1 #
b1 G
1J
b111 7
b111 K
b111 T
10
1'
b110111001 (
b110111001 <
b110111001 D
b1 1
b1 E
b1010011 2
b1010011 :
b1000 +
b11000 $
b11000 C
b0 *
b0 @
b0 H
b10100 %
b10100 A
b100 .
b100 S
b110110011 &
b110110011 F
b10010100110000100000000000000 5
b10010100110000100000000000000 =
b0 6
b0 R
b100110 -
b100110 9
b100110 ;
b0 )
b0 B
b0 I
1!
#390
0!
#395
b10000111101000 &
b10000111101000 F
b10 #
b10 G
b0 ,
b0 >
0J
b10000111101000 6
b10000111101000 R
b0 7
b0 K
b0 T
00
1'
b1000 1
b1000 E
b100 2
b100 :
b10 +
b10000000110101 )
b10000000110101 B
b10000000110101 I
b10 $
b10 C
b110110011 *
b110110011 @
b110110011 H
b1 %
b1 A
b0 .
b0 S
b1000100001000000000000 5
b1000100001000000000000 =
b100111 -
b100111 9
b100111 ;
b0 (
b0 <
b0 D
1!
#400
0!
#405
b110100111 ,
b110100111 >
b1 #
b1 G
1J
b111 7
b111 K
b111 T
10
1'
b110110011 (
b110110011 <
b110110011 D
b1 1
b1 E
b1010100 2
b1010100 :
b1000 +
b0 $
b0 C
b0 *
b0 @
b0 H
b10101 %
b10101 A
b100 .
b100 S
b110100111 &
b110100111 F
b10010101000000100000000000000 5
b10010101000000100000000000000 =
b0 6
b0 R
b101000 -
b101000 9
b101000 ;
b0 )
b0 B
b0 I
1!
#410
0!
#415
b10001110001111 &
b10001110001111 F
b10 #
b10 G
b0 ,
b0 >
0J
b10001110001111 6
b10001110001111 R
b0 7
b0 K
b0 T
00
1'
b1000 1
b1000 E
b100 2
b100 :
b10 +
b10000111101000 )
b10000111101000 B
b10000111101000 I
b10 $
b10 C
b110100111 *
b110100111 @
b110100111 H
b1 %
b1 A
b0 .
b0 S
b1000100001000000000000 5
b1000100001000000000000 =
b101001 -
b101001 9
b101001 ;
b0 (
b0 <
b0 D
1!
#420
0!
#425
b110101010 ,
b110101010 >
b1 #
b1 G
1J
b111 7
b111 K
b111 T
10
1'
b110100111 (
b110100111 <
b110100111 D
b1 1
b1 E
b1010101 2
b1010101 :
b1000 +
b1000 $
b1000 C
b0 *
b0 @
b0 H
b10101 %
b10101 A
b100 .
b100 S
b110101010 &
b110101010 F
b10010101010000100000000000000 5
b10010101010000100000000000000 =
b0 6
b0 R
b101010 -
b101010 9
b101010 ;
b0 )
b0 B
b0 I
1!
#430
0!
#435
b10010100111001 &
b10010100111001 F
b10 #
b10 G
b0 ,
b0 >
0J
b10010100111001 6
b10010100111001 R
b0 7
b0 K
b0 T
00
1'
b1000 1
b1000 E
b100 2
b100 :
b10 +
b10001110001111 )
b10001110001111 B
b10001110001111 I
b10 $
b10 C
b110101010 *
b110101010 @
b110101010 H
b1 %
b1 A
b0 .
b0 S
b1000100001000000000000 5
b1000100001000000000000 =
b101011 -
b101011 9
b101011 ;
b0 (
b0 <
b0 D
1!
#440
0!
#445
b110110101 ,
b110110101 >
b1 #
b1 G
1J
b111 7
b111 K
b111 T
10
1'
b110101010 (
b110101010 <
b110101010 D
b1 1
b1 E
b1010110 2
b1010110 :
b1000 +
b10000 $
b10000 C
b0 *
b0 @
b0 H
b10101 %
b10101 A
b100 .
b100 S
b110110101 &
b110110101 F
b10010101100000100000000000000 5
b10010101100000100000000000000 =
b0 6
b0 R
b101100 -
b101100 9
b101100 ;
b0 )
b0 B
b0 I
1!
#450
0!
#455
b10011011101110 &
b10011011101110 F
b10 #
b10 G
b0 ,
b0 >
0J
b10011011101110 6
b10011011101110 R
b0 7
b0 K
b0 T
00
1'
b1000 1
b1000 E
b100 2
b100 :
b10 +
b10010100111001 )
b10010100111001 B
b10010100111001 I
b10 $
b10 C
b110110101 *
b110110101 @
b110110101 H
b1 %
b1 A
b0 .
b0 S
b1000100001000000000000 5
b1000100001000000000000 =
b101101 -
b101101 9
b101101 ;
b0 (
b0 <
b0 D
1!
#460
0!
#465
b110110100 ,
b110110100 >
b1 #
b1 G
1J
b111 7
b111 K
b111 T
10
1'
b110110101 (
b110110101 <
b110110101 D
b1 1
b1 E
b1010111 2
b1010111 :
b1000 +
b11000 $
b11000 C
b0 *
b0 @
b0 H
b10101 %
b10101 A
b100 .
b100 S
b110110100 &
b110110100 F
b10010101110000100000000000000 5
b10010101110000100000000000000 =
b0 6
b0 R
b101110 -
b101110 9
b101110 ;
b0 )
b0 B
b0 I
1!
#470
0!
#475
b10100010100010 &
b10100010100010 F
b10 #
b10 G
b0 ,
b0 >
0J
b10100010100010 6
b10100010100010 R
b0 7
b0 K
b0 T
00
1'
b1000 1
b1000 E
b100 2
b100 :
b10 +
b10011011101110 )
b10011011101110 B
b10011011101110 I
b10 $
b10 C
b110110100 *
b110110100 @
b110110100 H
b1 %
b1 A
b0 .
b0 S
b1000100001000000000000 5
b1000100001000000000000 =
b101111 -
b101111 9
b101111 ;
b0 (
b0 <
b0 D
1!
#480
0!
#485
b110100101 ,
b110100101 >
b1 #
b1 G
1J
b111 7
b111 K
b111 T
10
1'
b110110100 (
b110110100 <
b110110100 D
b1 1
b1 E
b1011000 2
b1011000 :
b1000 +
b0 $
b0 C
b0 *
b0 @
b0 H
b10110 %
b10110 A
b100 .
b100 S
b110100101 &
b110100101 F
b10010110000000100000000000000 5
b10010110000000100000000000000 =
b0 6
b0 R
b110000 -
b110000 9
b110000 ;
b0 )
b0 B
b0 I
1!
#490
0!
#495
b10101001000111 &
b10101001000111 F
b10 #
b10 G
b0 ,
b0 >
0J
b10101001000111 6
b10101001000111 R
b0 7
b0 K
b0 T
00
1'
b1000 1
b1000 E
b100 2
b100 :
b10 +
b10100010100010 )
b10100010100010 B
b10100010100010 I
b10 $
b10 C
b110100101 *
b110100101 @
b110100101 H
b1 %
b1 A
b0 .
b0 S
b1000100001000000000000 5
b1000100001000000000000 =
b110001 -
b110001 9
b110001 ;
b0 (
b0 <
b0 D
1!
#500
0!
#505
b110111011 ,
b110111011 >
b1 #
b1 G
1J
b111 7
b111 K
b111 T
10
1'
b110100101 (
b110100101 <
b110100101 D
b1 1
b1 E
b1011001 2
b1011001 :
b1000 +
b1000 $
b1000 C
b0 *
b0 @
b0 H
b10110 %
b10110 A
b100 .
b100 S
b110111011 &
b110111011 F
b10010110010000100000000000000 5
b10010110010000100000000000000 =
b0 6
b0 R
b110010 -
b110010 9
b110010 ;
b0 )
b0 B
b0 I
1!
#510
0!
#515
b10110000000010 &
b10110000000010 F
b10 #
b10 G
b0 ,
b0 >
0J
b10110000000010 6
b10110000000010 R
b0 7
b0 K
b0 T
00
1'
b1000 1
b1000 E
b100 2
b100 :
b10 +
b10101001000111 )
b10101001000111 B
b10101001000111 I
b10 $
b10 C
b110111011 *
b110111011 @
b110111011 H
b1 %
b1 A
b0 .
b0 S
b1000100001000000000000 5
b1000100001000000000000 =
b110011 -
b110011 9
b110011 ;
b0 (
b0 <
b0 D
1!
#520
0!
#525
b110101011 ,
b110101011 >
b1 #
b1 G
1J
b111 7
b111 K
b111 T
10
1'
b110111011 (
b110111011 <
b110111011 D
b1 1
b1 E
b1011010 2
b1011010 :
b1000 +
b10000 $
b10000 C
b0 *
b0 @
b0 H
b10110 %
b10110 A
b100 .
b100 S
b110101011 &
b110101011 F
b10010110100000100000000000000 5
b10010110100000100000000000000 =
b0 6
b0 R
b110100 -
b110100 9
b110100 ;
b0 )
b0 B
b0 I
1!
#530
0!
